{
    "title": "Loja Alabastrum",
    "accountUrl": "http://106.186.24.86:8080/account/",
    "checkoutUrl": "http://106.186.24.86:8080/checkout/",
    "stockUrl": "http://106.186.24.86:8080/stock/"
}
