12-Jan-2016 22:11:36.311 INFO [http-apr-8082-exec-35] org.apache.catalina.core.StandardContext.reload Reloading Context with name [/Account] has started
12-Jan-2016 22:11:36.512 WARNING [http-apr-8082-exec-35] org.apache.catalina.loader.WebappClassLoaderBase.clearReferencesJdbc The web application [Account] registered the JDBC driver [com.mysql.jdbc.Driver] but failed to unregister it when the web application was stopped. To prevent a memory leak, the JDBC Driver has been forcibly unregistered.
12-Jan-2016 22:11:36.512 WARNING [http-apr-8082-exec-35] org.apache.catalina.loader.WebappClassLoaderBase.clearReferencesThreads The web application [Account] appears to have started a thread named [Abandoned connection cleanup thread] but has failed to stop it. This is very likely to create a memory leak. Stack trace of thread:
 java.lang.Object.wait(Native Method)
 java.lang.ref.ReferenceQueue.remove(ReferenceQueue.java:142)
 com.mysql.jdbc.AbandonedConnectionCleanupThread.run(AbandonedConnectionCleanupThread.java:40)
12-Jan-2016 22:11:54.203 INFO [http-apr-8082-exec-35] org.apache.catalina.core.StandardContext.reload Reloading Context with name [/Account] is completed
